std_pkgs_08/resolve1/sim.vcd
$date May 16, 2022 09:54:57
$end
$version DSim 20220328.4.0.inprog
$end
$timescale 1 ns $end
$scope module $pkgs $end
$scope module not_ieee.std_logic_1164 $end
$var wire 256 - char_to_mvl9[0:255] $end
$var wire 9 + cvt_to_ux01[0:8] $end
$var wire 9 ) cvt_to_x01[0:8] $end
$var wire 9 * cvt_to_x01z[0:8] $end
$var wire 8 / nbsp $end
$var wire 9 ( not_table[0:8] $end
$upscope $end
$scope module std $end
$scope function randomize $end
$upscope $end
$upscope $end
$scope module std.standard $end
$upscope $end
$scope module std.textio $end
$upscope $end
$upscope $end
$scope module std2 $end
$scope begin proc1 $end
$upscope $end
$scope begin proc2 $end
$upscope $end
$scope begin proc3 $end
$upscope $end
$scope begin proc4 $end
$var wire 1 ; v_val $end
$upscope $end
$scope begin proc5 $end
$var wire 1 < v_tlogic $end
$upscope $end
$var wire 1 6 clk $end
$var wire 32 : cnt $end
$var wire 1 4 p3 $end
$var wire 1 5 p4 $end
$var wire 1 3 r $end
$var wire 1 9 rnvec $end
$var wire 1 7 solo[0:0] $end
$var wire 1 8 solo1 $end
$upscope $end
$enddefinitions $end
#0
$dumpvars
bX01XXXXXXXXXXXXXXXXXXXXXX1XXX0XXXXXXXXXXXXXZXXXXXXXXXXXXXXXXXXXXXXXXXXXXXXXXXXXXXXXXXXXXXXXXXXXXXXXXXXXXXXXXXXXXXXXXXXXXXXXXXXXXXXXXXXXXXXXXXXXXXXXXXXXXXXXXXXXXXXXXXXXXXXXXXXXXXXXXXXXXXXXXXXXXXXXXXXXXXXXXXXXXX -
bX01XX01X +
bX01XX01X )
bX01ZX01X *
b10100000 /
bX10XX10X (
X;
X<
06
b0 :
X4
X5
X3
X9
bX 7
X8
$end
Z9
#1
16
X;
b01 :
#2
06
#3
16
0;
b010 :
X5
#4
06
#5
16
1;
b011 :
05
#6
06
#7
16
Z;
b0100 :
15
#8
06
#9
16
X;
b0101 :
Z5
#10
06
#11
16
0;
b0110 :
X5
#12
06
#13
16
1;
b0111 :
05
#14
06
#15
16
X;
b01000 :
15
#16
06
#17
16
X;
b01001 :
X5
#18
06
#19
16
X;
b01010 :
X4
X5
#20
06
#21
16
0;
b01011 :
X5
X3
bX 7
X8
#22
06
#23
16
1;
b01100 :
05
#24
06
#25
16
Z;
b01101 :
15
#26
06
#27
16
X;
b01110 :
Z5
#28
06
#29
16
0;
b01111 :
X5
#30
06
#31
16
1;
b010000 :
05
#32
06
#33
16
X;
b010001 :
15
#34
06
#35
16
X;
b010010 :
X5
#36
06
#37
16
X;
b010011 :
04
X5
X3
bX 7
X8
#38
06
#39
16
0;
b010100 :
X5
X3
bX 7
X8
#40
06
#41
16
1;
b010101 :
05
03
b0 7
08
#42
06
#43
16
Z;
b010110 :
15
X3
bX 7
X8
#44
06
#45
16
X;
b010111 :
Z5
03
b0 7
08
#46
06
#47
16
0;
b011000 :
X5
#48
06
#49
16
1;
b011001 :
05
#50
06
#51
16
X;
b011010 :
15
#52
06
#53
16
X;
b011011 :
X5
X3
bX 7
X8
#54
06
#55
16
X;
b011100 :
14
X5
X3
bX 7
X8
#56
06
#57
16
0;
b011101 :
X5
X3
bX 7
X8
#58
06
#59
16
1;
b011110 :
05
#60
06
#61
16
Z;
b011111 :
15
13
b1 7
18
#62
06
#63
16
X;
b0100000 :
Z5
#64
06
#65
16
0;
b0100001 :
X5
#66
06
#67
16
1;
b0100010 :
05
#68
06
#69
16
X;
b0100011 :
15
#70
06
#71
16
X;
b0100100 :
X5
X3
bX 7
X8
#72
06
#73
16
X;
b0100101 :
Z4
X5
X3
bX 7
X8
#74
06
#75
16
0;
b0100110 :
X5
X3
bX 7
X8
#76
06
#77
16
1;
b0100111 :
05
03
b0 7
08
#78
06
#79
16
Z;
b0101000 :
15
13
b1 7
18
#80
06
#81
16
X;
b0101001 :
Z5
Z3
bZ 7
Z8
#82
06
#83
16
0;
b0101010 :
X5
X3
bX 7
X8
#84
06
#85
16
1;
b0101011 :
05
03
b0 7
08
#86
06
#87
16
X;
b0101100 :
15
13
b1 7
18
#88
06
#89
16
X;
b0101101 :
X5
X3
bX 7
X8
#90
06
#91
16
X;
b0101110 :
X4
X5
X3
bX 7
X8
#92
06
#93
16
0;
b0101111 :
X5
X3
bX 7
X8
#94
06
#95
16
1;
b0110000 :
05
03
b0 7
08
#96
06
#97
16
Z;
b0110001 :
15
13
b1 7
18
#98
06
#99
16
X;
b0110010 :
Z5
X3
bX 7
X8
#100
06
#101
16
0;
b0110011 :
X5
#102
06
#103
16
1;
b0110100 :
05
#104
06
#105
16
X;
b0110101 :
15
#106
06
#107
16
X;
b0110110 :
X5
X3
bX 7
X8
#108
06
#109
16
X;
b0110111 :
04
X5
X3
bX 7
X8
#110
06
#111
16
0;
b0111000 :
X5
X3
bX 7
X8
#112
06
#113
16
1;
b0111001 :
05
03
b0 7
08
#114
06
#115
16
Z;
b0111010 :
15
13
b1 7
18
#116
06
#117
16
X;
b0111011 :
Z5
03
b0 7
08
#118
06
#119
16
0;
b0111100 :
X5
X3
bX 7
X8
#120
06
#121
16
1;
b0111101 :
05
03
b0 7
08
#122
06
#123
16
X;
b0111110 :
15
X3
bX 7
X8
#124
06
#125
16
X;
b0111111 :
X5
X3
bX 7
X8
#126
06
#127
16
X;
b01000000 :
14
X5
X3
bX 7
X8
#128
06
#129
16
0;
b01000001 :
X5
X3
bX 7
X8
#130
06
#131
16
1;
b01000010 :
05
03
b0 7
08
#132
06
#133
16
Z;
b01000011 :
15
13
b1 7
18
#134
06
#135
16
X;
b01000100 :
Z5
13
b1 7
18
#136
06
#137
16
0;
b01000101 :
X5
X3
bX 7
X8
#138
06
#139
16
1;
b01000110 :
05
#140
06
#141
16
X;
b01000111 :
15
13
b1 7
18
#142
06
#143
16
X;
b01001000 :
X5
X3
bX 7
X8
#144
06
#145
16
X;
b01001001 :
X4
X5
X3
bX 7
X8
#146
06
#147
16
0;
b01001010 :
X5
X3
bX 7
X8
#148
06
#149
16
1;
b01001011 :
05
#150
06
#151
16
Z;
b01001100 :
15
#152
06
#153
16
X;
b01001101 :
Z5
#154
06
#155
16
0;
b01001110 :
X5
#156
06
#157
16
1;
b01001111 :
05
#158
06
#159
16
X;
b01010000 :
15
#160
06
#161
16
X;
b01010001 :
X5
#162
06
#163
16
X;
b01010010 :
X4
X5
X3
bX 7
X8
